 ets Jan  8 2013,rst cause:2, boot mode:(3,6)
load 0x40100000, len 2592, room 16
tail 0
chksum 0xf3
load 0x3ffe8000, len 764, room 8
tail 4
chksum 0x92
load 0x3ffe82fc, len 676, room 4
tail 0
chksum 0x22
csum 0x22
2nd boot version : 1.7(5d6f877)
SPI Speed : 40MHz
SPI Mode : DOUT
SPI Flash Size & Map: 8Mbit(512KB+512KB)
jump to run user1 @ 1000

OS SDK ver: 2.0.0(e8c5810) compiled @ Jan 25 2019 14:26:04
phy ver: 1055_9, pp ver: 10.7
rf cal sector: 121
idle_task_hdl : 40107a90,prio:0, stack:384
tim_task_hdl : 40107bd8, prio:2,stack:512

OS SDK ver: 2.0.0(e8c5810) compiled @ Jan 25 2019 14:26:04
phy ver: 1055_9, pp ver: 10.7
rf cal sector: 121
idle_task_hdl : 40107a90,prio:0, stack:384
tim_task_hdl : 40107bd8, prio:2,stack:512
